^E:\PROJECT CHESS\CHESS 0.1.7 BETA\CHESS\CHESS\DEBUG\BEHAVIOUR.OBJ|E:\PROJECT CHESS\CHESS 0.1.7 BETA\CHESS\CHESS\DEBUG\CHECKMATE.OBJ|E:\PROJECT CHESS\CHESS 0.1.7 BETA\CHESS\CHESS\DEBUG\IMAIN.OBJ|E:\PROJECT CHESS\CHESS 0.1.7 BETA\CHESS\CHESS\GLUT32.LIB
E:\PROJECT CHESS\CHESS 0.1.7 BETA\CHESS\DEBUG\CHESS.ILK
E:\PROJECT CHESS\CHESS 0.1.7 BETA\CHESS\DEBUG\CHESS.EXE
E:\PROJECT CHESS\CHESS 0.1.7 BETA\CHESS\DEBUG\CHESS.PDB
